Recreating Nightingale’s Coxcombs
…
```
# A tibble: 40 x 4
     age age_group mort_group    rate
   <dbl> <fct>     <chr>        <dbl>
 1    20 20-25     soldier_rate 16.9 
 2    20 20-25     english_rate  8.2 
 3    21 20-25     soldier_rate 17.1 
 4    21 20-25     english_rate  8.37
 5    22 20-25     soldier_rate 17.2 
 6    22 20-25     english_rate  8.54
 7    23 20-25     soldier_rate 17.3 
 8    23 20-25     english_rate  8.72
 9    24 20-25     soldier_rate 17.4 
10    24 20-25     english_rate  8.90
# … with 30 more rows
```
---
count: false

```
# A tibble: 40 x 4
# Groups:   age_group, mort_group [8]
     age age_group mort_group    rate
   <dbl> <fct>     <chr>        <dbl>
 1    20 20-25     soldier_rate 16.9 
 2    20 20-25     english_rate  8.2 
 3    21 20-25     soldier_rate 17.1 
 4    21 20-25     english_rate  8.37
 5    22 20-25     soldier_rate 17.2 
 6    22 20-25     english_rate  8.54
 7    23 20-25     soldier_rate 17.3 
 8    23 20-25     english_rate  8.72
 9    24 20-25     soldier_rate 17.4 
10    24 20-25     english_rate  8.90
# … with 30 more rows
```
…
